"Lumberjack increase score = ""green"",    else ""blue""",,Clusters modified by Lumberjack                 [splitted (true)]                 [not-splitted (false)],"Cluster ID (ID's are not unique, because different datasets are merged together)",RNAz only sequence clustering (SVM RNA-class probability),RNAz sequence clustering + lumberjack  (SVM RNA-class probability),"cluster 1 contains the best SVM RNA-class probability, cluster 2 the next best score and so on",,,,,,
,,,,,cluster 1,cluster 2,cluster 3,cluster 4,cluster 5,cluster 6,cluster 7,cluster 8
,,not-splitted,342,0.163816,0.163816,,,,,,,
,,not-splitted,611,0.934176,0.934176,,,,,,,
,,not-splitted,278,0.032581,0.030048,,,,,,,
,,not-splitted,467,0.99789,0.99789,,,,,,,
,,not-splitted,466,0.856003,0.856003,,,,,,,
,,not-splitted,62,0.005904,0.005904,,,,,,,
,,not-splitted,413,0,0,,,,,,,
,,splitted,159,0.303133,0.982175,0.817213,,,,,,
,,splitted,558,0,0,0,,,,,,
,,not-splitted,519,0.229629,0.229629,,,,,,,
,,not-splitted,59,0.345208,0.345208,,,,,,,
,,not-splitted,427,0,0,,,,,,,
,,not-splitted,522,0,0,,,,,,,
,,not-splitted,864,0.002578,0.002578,,,,,,,
,,splitted,807,0.96793,0.977781,0.898985,,,,,,
,,not-splitted,604,0,0,,,,,,,
,,not-splitted,768,0.002852,0.002852,,,,,,,
,,not-splitted,402,0.948039,0.948039,,,,,,,
,,not-splitted,582,0.099115,0.099115,,,,,,,
,,not-splitted,184,0,0,,,,,,,
,,not-splitted,129,0,0,,,,,,,
,,not-splitted,57,1.00E-06,0.000001,,,,,,,
,,not-splitted,262,0,0,,,,,,,
,,not-splitted,208,0.035984,0.035984,,,,,,,
,,not-splitted,686,0.014457,0.0151,,,,,,,
,,not-splitted,49,0.207033,0.207033,,,,,,,
,,splitted,286,0,0.002604,0,,,,,,
,,not-splitted,113,0,0,,,,,,,
,,not-splitted,414,0,0,,,,,,,
,,not-splitted,347,2.00E-06,0.000001,,,,,,,
,,not-splitted,674,0.004957,0.004957,,,,,,,
,,not-splitted,307,1.00E-06,0.000002,,,,,,,
,,not-splitted,774,0,0,,,,,,,
,,not-splitted,778,0,0,,,,,,,
,,splitted,546,0,0.005336,0,,,,,,
,,not-splitted,271,0.00331,0.00331,,,,,,,
,,not-splitted,637,0,0,,,,,,,
,,not-splitted,287,0,0.369922,,,,,,,
,,not-splitted,931,0.956244,0.956244,,,,,,,
,,not-splitted,698,0,0,,,,,,,
,,not-splitted,273,6.00E-06,0.000006,,,,,,,
,,not-splitted,386,0,0,,,,,,,
,,not-splitted,258,0.999929,0.999929,,,,,,,
,,splitted,10,0.573359,0.779229,0.709659,,,,,,
,,splitted,194,0.232305,0.04011,0.018115,,,,,,
,,not-splitted,935,0.160512,0.119548,,,,,,,
,,not-splitted,1009,0.014199,0.012368,,,,,,,
,,not-splitted,760,0.2507,0.2507,,,,,,,
,,not-splitted,669,0.924599,0.924599,,,,,,,
,,not-splitted,291,0.971851,0.971851,,,,,,,
,,not-splitted,790,0.995933,0.995933,,,,,,,
,,not-splitted,964,0.607143,0.607143,,,,,,,
,,splitted,202,0,0,,,,,,,
,,not-splitted,926,0,0,,,,,,,
,,not-splitted,1005,0.304671,0.345511,,,,,,,
,,not-splitted,222,0,0,,,,,,,
,,not-splitted,248,0.017127,0.017127,,,,,,,
,,not-splitted,51,0.77922,0.77922,,,,,,,
,,not-splitted,871,0.010962,0.013102,,,,,,,
,,not-splitted,550,0,0,,,,,,,
,,not-splitted,979,0,0,,,,,,,
,,not-splitted,274,1.20E-05,0.000011,,,,,,,
,,not-splitted,848,0,0,,,,,,,
,,not-splitted,209,0.598094,0.598094,,,,,,,
,,not-splitted,868,0,0,,,,,,,
,,splitted,265,0.052674,0.753708,0.654024,,,,,,
,,not-splitted,570,9.00E-06,0.000009,,,,,,,
,,splitted,345,0.017037,0.404809,,,,,,,
,,not-splitted,499,0.434031,0.434031,,,,,,,
,,not-splitted,797,0.996787,0.996787,,,,,,,
,,not-splitted,999,0,0,,,,,,,
,,not-splitted,9,0,0,,,,,,,
,,not-splitted,325,0,0,,,,,,,
,,not-splitted,816,0.995187,0.994928,,,,,,,
,,not-splitted,753,0,0,,,,,,,
,,not-splitted,473,0,0,,,,,,,
,,not-splitted,80,0.020036,0.020036,,,,,,,
,,not-splitted,102,3.00E-06,0.000003,,,,,,,
,,not-splitted,440,0,0,,,,,,,
,,not-splitted,912,0,0,,,,,,,
,,not-splitted,623,0.183424,0.183424,,,,,,,
,,not-splitted,677,0.931943,0.931943,,,,,,,
,,not-splitted,734,0,0,,,,,,,
,,not-splitted,128,0.012282,0.012282,,,,,,,
,,splitted,54,0,0.044176,0,,,,,,
,,not-splitted,32,0,0,,,,,,,
,,not-splitted,152,0,0,,,,,,,
,,not-splitted,967,0,0,,,,,,,
,,not-splitted,748,0.822119,0.822119,,,,,,,
,,not-splitted,421,0,0,,,,,,,
,,not-splitted,441,0,0,,,,,,,
,,not-splitted,989,0.0751,0.0751,,,,,,,
,,not-splitted,633,0,0,,,,,,,
,,not-splitted,630,0.944718,0.944718,,,,,,,
,,not-splitted,431,0.99762,0.99762,,,,,,,
,,not-splitted,68,1.40E-05,0.000014,,,,,,,
,,not-splitted,665,0.409344,0.409344,,,,,,,
,,not-splitted,251,0.996839,0.997757,,,,,,,
,,not-splitted,134,1.10E-05,0.000011,,,,,,,
,,splitted,649,0.999211,0.994825,,,,,,,
,,not-splitted,25,0,0,,,,,,,
,,not-splitted,502,0.88451,0.88451,,,,,,,
,,not-splitted,338,0,0,,,,,,,
,,not-splitted,513,0,0,,,,,,,
,,not-splitted,301,0,0,,,,,,,
,,not-splitted,855,0.13606,0.13606,,,,,,,
,,not-splitted,306,0.059377,0.059377,,,,,,,
,,not-splitted,795,0.010403,0.010051,,,,,,,
,,not-splitted,257,0,0,,,,,,,
,,not-splitted,81,3.00E-06,0.000003,,,,,,,
,,not-splitted,280,0,0,,,,,,,
,,not-splitted,228,0.87562,0.87562,,,,,,,
,,not-splitted,567,0.802508,0.802508,,,,,,,
,,not-splitted,428,0.992274,0.992274,,,,,,,
,,not-splitted,636,0.992897,0.992897,,,,,,,
,,not-splitted,834,0,0,,,,,,,
,,not-splitted,238,0.410271,0.410271,,,,,,,
,,splitted,14,0,0.990098,0.000001,,,,,,
,,not-splitted,394,0,0,,,,,,,
,,not-splitted,899,0,0,,,,,,,
,,not-splitted,690,0,0,,,,,,,
,,not-splitted,811,7.00E-06,0.000007,,,,,,,
,,not-splitted,793,0,0,,,,,,,
,,not-splitted,512,0,0,,,,,,,
,,not-splitted,762,0,0,,,,,,,
,,not-splitted,632,0,0,,,,,,,
,,splitted,410,0,0.143605,0,,,,,,
,,not-splitted,448,0,0,,,,,,,
,,not-splitted,736,0,0,,,,,,,
,,splitted,759,1.60E-05,0.996096,0.564596,0.085884,,,,,
,,not-splitted,224,0,0,,,,,,,
,,not-splitted,491,0.206051,0.173996,,,,,,,
,,not-splitted,198,5.00E-06,0.000004,,,,,,,
,,not-splitted,716,0,0,,,,,,,
,,splitted,908,0,0.427762,0,,,,,,
,,not-splitted,137,0,0,,,,,,,
,,not-splitted,444,1.00E-06,0.000001,,,,,,,
,,not-splitted,564,0,0,,,,,,,
,,not-splitted,174,0.02654,0.02654,,,,,,,
,,not-splitted,837,0.042596,0.039239,,,,,,,
,,not-splitted,972,0,0,,,,,,,
,,not-splitted,375,1.00E-06,0.000001,,,,,,,
,,not-splitted,895,0,0,,,,,,,
,,not-splitted,87,0.023888,0.023888,,,,,,,
,,not-splitted,295,0.07827,0.033061,,,,,,,
,,not-splitted,388,0.005528,0.004808,,,,,,,
,,not-splitted,584,0,0,,,,,,,
,,not-splitted,362,0.573222,0.573222,,,,,,,
,,splitted,215,0,0.003108,0.000003,,,,,,
,,not-splitted,929,0.918356,0.918356,,,,,,,
,,not-splitted,856,0,0,,,,,,,
,,not-splitted,939,1.50E-05,0.000015,,,,,,,
,,not-splitted,349,3.00E-06,0.000003,,,,,,,
,,not-splitted,40,0,0,,,,,,,
,,not-splitted,445,0.055855,0.055855,,,,,,,
,,splitted,424,0.996994,0.998045,0.647973,0.159169,,,,,
,,splitted,685,0,0.007889,,,,,,,
,,not-splitted,1002,0.353787,0.353787,,,,,,,
,,not-splitted,966,0,0,,,,,,,
,,not-splitted,169,0.886396,0.897331,,,,,,,
,,not-splitted,355,0,0,,,,,,,
,,splitted,176,0,0.00728,0,,,,,,
,,not-splitted,304,0,0,,,,,,,
,,not-splitted,153,0.183424,0.183424,,,,,,,
,,not-splitted,862,0.997175,0.997175,,,,,,,
,,not-splitted,374,0,0,,,,,,,
,,not-splitted,962,0.999677,0.999677,,,,,,,
,,not-splitted,64,0,0,,,,,,,
,,not-splitted,608,0,0,,,,,,,
,,splitted,460,0.890148,0.965159,0.961927,0.105395,,,,,
,,not-splitted,52,0,0,,,,,,,
,,not-splitted,243,0.064098,0.064098,,,,,,,
,,not-splitted,300,1.00E-06,0.000001,,,,,,,
,,not-splitted,122,5.00E-06,0.000003,,,,,,,
,,splitted,144,0.019451,0.01118,0.000001,,,,,,
,,not-splitted,750,0.026279,0.026279,,,,,,,
,,splitted,670,0.986852,0.980919,0.427008,,,,,,
,,not-splitted,350,0,0,,,,,,,
,,not-splitted,44,0.976248,0.976248,,,,,,,
,,not-splitted,858,0.104937,0.104937,,,,,,,
,,splitted,749,0.034239,0.936414,0.003816,,,,,,
,,not-splitted,653,0.843006,0.843006,,,,,,,
,,not-splitted,332,0,0,,,,,,,
,,not-splitted,66,0.998229,0.998229,,,,,,,
,,splitted,844,5.00E-06,0.758353,0.000015,,,,,,
,,not-splitted,708,0,0,,,,,,,
,,not-splitted,555,0.054703,0.054703,,,,,,,
,,not-splitted,628,0,0,,,,,,,
,,not-splitted,78,0,0,,,,,,,
,,not-splitted,559,0,0,,,,,,,
,,not-splitted,196,4.00E-06,0.000004,,,,,,,
,,not-splitted,389,1.20E-05,0.000012,,,,,,,
,,splitted,353,0,0.306316,0,,,,,,
,,not-splitted,312,0.955236,0.955236,,,,,,,
,,not-splitted,577,0,0,,,,,,,
,,not-splitted,83,0,0,,,,,,,
,,not-splitted,922,1.00E-06,0.000001,,,,,,,
,,not-splitted,788,0,0,,,,,,,
,,not-splitted,123,0,0,,,,,,,
,,splitted,714,0,0.997834,0.997455,0.985592,0.969925,0.91401,0.816279,0.77922,0
,,not-splitted,365,0,0,,,,,,,
,,not-splitted,654,0,0,,,,,,,
,,not-splitted,827,0.002973,0.003226,,,,,,,
,,not-splitted,634,0.180299,0.165492,,,,,,,
,,not-splitted,400,0.984424,0.984424,,,,,,,
,,not-splitted,719,0,0,,,,,,,
,,splitted,409,0,0.163711,0,,,,,,
,,not-splitted,165,0.051613,0.055136,,,,,,,
,,not-splitted,697,0.003447,0.003447,,,,,,,
,,not-splitted,1,0,0,,,,,,,
,,not-splitted,155,0.983818,0.983818,,,,,,,
,,not-splitted,648,0,0,,,,,,,
,,not-splitted,73,0,0,,,,,,,
,,not-splitted,672,0,0,,,,,,,
,,not-splitted,498,0,0,,,,,,,
,,not-splitted,484,0,0,,,,,,,
,,splitted,247,0,0.188167,0.062852,0.022979,0.004237,0.000005,,,
,,not-splitted,836,0.990894,0.991038,,,,,,,
,,not-splitted,423,1.00E-05,0.00001,,,,,,,
,,not-splitted,562,0,0,,,,,,,
,,not-splitted,146,0.178429,0.178429,,,,,,,
,,not-splitted,142,0.370077,0.370077,,,,,,,
,,not-splitted,658,0,0,,,,,,,
,,not-splitted,659,0,0,,,,,,,
,,splitted,501,0,0.982323,0,,,,,,
,,not-splitted,548,9.00E-06,0.000009,,,,,,,
,,not-splitted,667,4.00E-06,0.000004,,,,,,,
,,not-splitted,692,0.792142,0.792142,,,,,,,
,,not-splitted,229,0,0,,,,,,,
,,not-splitted,86,2.00E-06,0.000002,,,,,,,
,,not-splitted,138,0.999492,0.999492,,,,,,,
,,splitted,1000,0.109024,0.573222,,,,,,,
,,not-splitted,284,6.00E-06,0.000006,,,,,,,
,,splitted,367,0,0.032297,,,,,,,
,,splitted,619,0,0.064933,0.000001,,,,,,
,,splitted,324,0.998778,0.998196,0.997095,,,,,,
,,not-splitted,218,0.84276,0.84276,,,,,,,
,,not-splitted,364,0.998618,0.998618,,,,,,,
,,not-splitted,173,7.00E-06,0.000007,,,,,,,
,,not-splitted,220,0,0,,,,,,,
,,not-splitted,780,0,0,,,,,,,
,,not-splitted,46,0,0,,,,,,,
,,not-splitted,21,0,0,,,,,,,
,,not-splitted,612,0.005379,0.005852,,,,,,,
,,not-splitted,12,0,0,,,,,,,
,,not-splitted,729,0.988579,0.988579,,,,,,,
,,splitted,149,0.987811,0.992438,0.926167,,,,,,
,,splitted,817,0.865974,0.856484,0.626138,,,,,,
,,not-splitted,316,0.028176,0.028176,,,,,,,
,,not-splitted,298,0.883037,0.883037,,,,,,,
,,not-splitted,724,0.150186,0.150186,,,,,,,
,,not-splitted,246,7.00E-06,0.000007,,,,,,,
,,splitted,647,0.840386,0.485322,0.157348,,,,,,
,,not-splitted,518,0.02005,0.02005,,,,,,,
,,not-splitted,268,0.01759,0.01759,,,,,,,
,,not-splitted,100,0,0,,,,,,,
,,splitted,160,0.996343,0.999589,0.999329,0.998988,0.952439,0.557801,0.051613,,
,,not-splitted,956,0.344793,0.344793,,,,,,,
,,not-splitted,796,0,0,,,,,,,
,,not-splitted,31,0.027546,0.025281,,,,,,,
,,not-splitted,650,0.979439,0.979439,,,,,,,
,,not-splitted,900,0.032204,0.032204,,,,,,,
,,splitted,79,0.003431,0.882604,0,,,,,,
,,not-splitted,309,0,0,,,,,,,
,,not-splitted,625,0.011485,0.011957,,,,,,,
,,not-splitted,920,7.00E-06,0.000007,,,,,,,
,,not-splitted,192,0.145848,0.145848,,,,,,,
,,not-splitted,1008,2.00E-06,0.000002,,,,,,,
,,not-splitted,591,5.00E-06,0.000005,,,,,,,
,,splitted,711,0.32799,0.477197,0.375321,,,,,,
,,splitted,952,0,0.891999,0,,,,,,
,,not-splitted,115,0,0,,,,,,,
,,not-splitted,854,0.022649,0.022649,,,,,,,
,,not-splitted,742,0,0,,,,,,,
,,not-splitted,380,0.009002,0.007649,,,,,,,
,,not-splitted,693,0.955874,0.949069,,,,,,,
,,not-splitted,397,0.002854,0.002854,,,,,,,
,,not-splitted,116,8.00E-06,0.000008,,,,,,,
,,not-splitted,326,0,0,,,,,,,
,,not-splitted,671,0.99581,0.995222,,,,,,,
,,not-splitted,210,7.00E-06,0.000007,,,,,,,
,,not-splitted,626,0.618461,0.618461,,,,,,,
,,not-splitted,486,6.00E-06,0.000006,,,,,,,
,,not-splitted,987,2.00E-06,0.000002,,,,,,,
,,splitted,381,0,0.020036,0,,,,,,
,,not-splitted,250,0,0,,,,,,,
,,not-splitted,516,0.999134,0.999116,,,,,,,
,,not-splitted,237,0.181192,0.181192,,,,,,,
,,splitted,507,0.53642,0.871618,,,,,,,
,,not-splitted,718,6.00E-06,0.000005,,,,,,,
,,not-splitted,420,0,0,,,,,,,
,,not-splitted,867,1.10E-05,0.000011,,,,,,,
,,not-splitted,327,0.13254,0.13254,,,,,,,
,,not-splitted,850,0.133893,0.133893,,,,,,,
,,not-splitted,747,0.638254,0.638254,,,,,,,
,,not-splitted,598,0,0,,,,,,,
,,splitted,6,0.023887,0.292302,0.007405,,,,,,
,,not-splitted,998,0,0,,,,,,,
,,not-splitted,139,0.989607,0.989607,,,,,,,
,,not-splitted,620,0,0,,,,,,,
,,not-splitted,3,0,0,,,,,,,
,,not-splitted,53,0.004325,0.004325,,,,,,,
,,splitted,328,0,0.067052,0,,,,,,
,,not-splitted,453,0,0,,,,,,,
,,not-splitted,443,0,0,,,,,,,
,,not-splitted,214,0,0,,,,,,,
,,not-splitted,232,0,0,,,,,,,
,,not-splitted,233,0.143619,0.153992,,,,,,,
,,not-splitted,269,0,0,,,,,,,
,,not-splitted,111,0,0,,,,,,,
,,not-splitted,171,0.007858,0.007858,,,,,,,
,,not-splitted,405,0.99444,0.994259,,,,,,,
,,splitted,971,0,0.000003,0,,,,,,
,,not-splitted,510,0.00685,0.00685,,,,,,,
,,not-splitted,465,0.462023,0.462023,,,,,,,
,,not-splitted,417,0.995379,0.995379,,,,,,,
,,not-splitted,965,0.08752,0.08752,,,,,,,
,,splitted,661,0.038582,0.676873,0,,,,,,
,,not-splitted,18,0,0,,,,,,,
,,splitted,913,0,0,0,,,,,,
,,splitted,154,0.893253,0.998439,0.475086,,,,,,
,,not-splitted,896,0.991665,0.99342,,,,,,,
,,not-splitted,932,0,0,,,,,,,
,,not-splitted,318,0.019735,0.019735,,,,,,,
,,splitted,587,0,0.223665,0,,,,,,
,,splitted,542,0.99625,0.99461,0.9944,0.958995,,,,,
,,not-splitted,974,0,0,,,,,,,
,,splitted,846,0,0.060842,0,,,,,,
,,not-splitted,572,0,0,,,,,,,
,,not-splitted,185,0,0,,,,,,,
,,not-splitted,730,0,0,,,,,,,
,,not-splitted,835,0.003791,0.003791,,,,,,,
,,not-splitted,916,0,0,,,,,,,
,,not-splitted,119,0.997855,0.997855,,,,,,,
,,not-splitted,368,0,0,,,,,,,
,,not-splitted,823,0,0,,,,,,,
,,not-splitted,706,0,0,,,,,,,
,,not-splitted,175,0,0,,,,,,,
,,not-splitted,592,0,0,,,,,,,
,,not-splitted,292,0,0,,,,,,,
,,not-splitted,1004,1.00E-06,0,,,,,,,
,,not-splitted,29,0,0,,,,,,,
,,not-splitted,255,0.234409,0.234409,,,,,,,
,,not-splitted,369,0.004491,0.004491,,,,,,,
,,not-splitted,838,0.624271,0.641565,,,,,,,
,,not-splitted,841,0,0,,,,,,,
,,not-splitted,891,0,0,,,,,,,
,,not-splitted,34,0.773713,0.759227,,,,,,,
,,splitted,545,0.266551,0.967139,0.00777,,,,,,
,,not-splitted,540,0.968077,0.968077,,,,,,,
,,not-splitted,167,0,0,,,,,,,
,,splitted,24,0.010651,0.026639,0,,,,,,
,,not-splitted,789,0,0,,,,,,,
,,not-splitted,253,0,0,,,,,,,
,,not-splitted,689,0.070282,0.070282,,,,,,,
,,not-splitted,108,0,0,,,,,,,
,,not-splitted,602,0.814614,0.814614,,,,,,,
,,not-splitted,981,0,0,,,,,,,
,,not-splitted,876,0.009916,0.009916,,,,,,,
,,not-splitted,370,0.09208,0.09208,,,,,,,
,,not-splitted,731,0.034772,0.034772,,,,,,,
,,not-splitted,666,0.003858,0.003858,,,,,,,
,,not-splitted,574,0,0,,,,,,,
,,splitted,810,0.064664,0.223389,0,,,,,,
,,not-splitted,437,0.012588,0.012588,,,,,,,
,,not-splitted,808,0.011541,0.011541,,,,,,,
,,not-splitted,191,0.013386,0.013386,,,,,,,
,,not-splitted,459,0,0,,,,,,,
,,not-splitted,346,0,0,,,,,,,
,,not-splitted,576,0,0,,,,,,,
,,not-splitted,941,2.00E-06,0.000002,,,,,,,
,,splitted,646,0.004836,0,,,,,,,
,,not-splitted,936,0,0,,,,,,,
,,splitted,892,0.034908,0.789646,0,,,,,,
,,not-splitted,904,0.039849,0.04149,,,,,,,
,,not-splitted,994,0.934549,0.929812,,,,,,,
,,not-splitted,829,0,0,,,,,,,
,,not-splitted,579,0.589758,0.575034,,,,,,,
,,not-splitted,65,0,0,,,,,,,
,,not-splitted,782,0,0,,,,,,,
,,splitted,767,0,0.639029,0,,,,,,
,,not-splitted,925,0,0,,,,,,,
,,not-splitted,720,0.016594,0.015273,,,,,,,
,,not-splitted,970,0,0,,,,,,,
,,not-splitted,506,0,0,,,,,,,
,,not-splitted,117,0,0,,,,,,,
,,not-splitted,77,0,0,,,,,,,
,,not-splitted,668,0,0,,,,,,,
,,not-splitted,710,0.941993,0.901796,,,,,,,
,,not-splitted,339,0,0,,,,,,,
,,not-splitted,803,0,0,,,,,,,
,,not-splitted,432,0.703008,0.703008,,,,,,,
,,splitted,19,0.01384,0.952261,0.033968,,,,,,
,,not-splitted,425,0.020129,0.020129,,,,,,,
,,not-splitted,961,0,0,,,,,,,
,,not-splitted,249,0.006797,0.008898,,,,,,,
,,not-splitted,76,0.010384,0.010384,,,,,,,
,,not-splitted,538,0.998258,0.998258,,,,,,,
,,not-splitted,343,0.71153,0.738536,,,,,,,
,,not-splitted,801,0,0,,,,,,,
,,not-splitted,275,0,0,,,,,,,
,,splitted,408,0.012306,0.950005,0.610759,0,,,,,
,,not-splitted,894,0,0,,,,,,,
,,not-splitted,784,0,0,,,,,,,
,,not-splitted,1272,0.303349,0.303349,,,,,,,
,,not-splitted,825,0,0,,,,,,,
,,not-splitted,1203,0.309251,0.309251,,,,,,,
,,not-splitted,370,0.004755,0.004755,,,,,,,
,,not-splitted,63,0,0,,,,,,,
,,not-splitted,917,1.00E-06,0.000001,,,,,,,
,,not-splitted,547,0.008166,0.008166,,,,,,,
,,splitted,117,0.998195,0.897819,0.810125,,,,,,
,,not-splitted,1336,1.00E-06,0.000001,,,,,,,
,,not-splitted,1322,1.00E-06,0.000001,,,,,,,
,,not-splitted,1334,0.218845,0.218845,,,,,,,
,,not-splitted,751,3.00E-06,0.000003,,,,,,,
,,not-splitted,579,2.00E-06,0.000002,,,,,,,
,,not-splitted,210,0,0,,,,,,,
,,not-splitted,83,5.00E-06,0.000005,,,,,,,
,,not-splitted,1078,0.002728,0.002728,,,,,,,
,,splitted,351,1.10E-05,0.051613,0.010856,,,,,,
,,not-splitted,1374,0.00439,0.00439,,,,,,,
,,not-splitted,1252,0.949633,0.955705,,,,,,,
,,splitted,1017,0.999765,0.998955,0.998333,,,,,,
,,not-splitted,78,4.00E-06,0.000004,,,,,,,
,,not-splitted,88,0,0,,,,,,,
,,not-splitted,1298,0.893607,0.893607,,,,,,,
,,not-splitted,922,0.998186,0.998175,,,,,,,
,,not-splitted,1310,0,0,,,,,,,
,,not-splitted,196,0.999934,0.999932,,,,,,,
,,not-splitted,977,0,0,,,,,,,
,,splitted,1186,0,0.012019,0,,,,,,
,,not-splitted,250,0,0,,,,,,,
,,not-splitted,371,0.112539,0.112539,,,,,,,
,,not-splitted,1343,0.882691,0.882691,,,,,,,
,,splitted,4,0.998972,0.998935,0.998588,,,,,,
,,not-splitted,582,0,0,,,,,,,
,,not-splitted,135,0.963304,0.963304,,,,,,,
,,not-splitted,1167,0,0,,,,,,,
,,not-splitted,345,0,0,,,,,,,
,,not-splitted,1034,0,0,,,,,,,
,,not-splitted,131,0,0,,,,,,,
,,not-splitted,708,0.021532,0.022486,,,,,,,
,,not-splitted,1326,0,0,,,,,,,
,,not-splitted,1031,0,0,,,,,,,
,,not-splitted,1257,0.038906,0.038906,,,,,,,
,,not-splitted,964,0,0,,,,,,,
,,not-splitted,884,0.803511,0.803511,,,,,,,
,,not-splitted,313,2.00E-06,0.000002,,,,,,,
,,not-splitted,270,0,0,,,,,,,
,,not-splitted,549,0,0,,,,,,,
,,not-splitted,1333,0,0,,,,,,,
,,not-splitted,384,0,0,,,,,,,
,,not-splitted,534,0.996867,0.996867,,,,,,,
,,not-splitted,13,0.963922,0.963922,,,,,,,
,,not-splitted,768,0,0,,,,,,,
,,not-splitted,589,0.005127,0.005127,,,,,,,
,,not-splitted,245,0.307032,0.307032,,,,,,,
,,not-splitted,469,0,0,,,,,,,
,,not-splitted,1092,0.180489,0.180489,,,,,,,
,,not-splitted,439,0.997173,0.997173,,,,,,,
,,not-splitted,528,0,0,,,,,,,
,,not-splitted,372,0,0,,,,,,,
,,not-splitted,738,0.533782,0.573222,,,,,,,
,,not-splitted,770,0,0,,,,,,,
,,splitted,786,0,0.028199,0.000001,0,,,,,
,,not-splitted,597,0,0,,,,,,,
,,not-splitted,522,0.002987,0.002695,,,,,,,
,,not-splitted,1098,0,0,,,,,,,
,,not-splitted,1324,0.037721,0.037721,,,,,,,
,,not-splitted,1154,0,0,,,,,,,
,,not-splitted,228,0,0,,,,,,,
,,not-splitted,271,2.00E-06,0.000002,,,,,,,
,,not-splitted,735,0.04673,0.04673,,,,,,,
,,not-splitted,339,0,0,,,,,,,
,,not-splitted,1253,2.00E-06,0.000002,,,,,,,
,,not-splitted,280,0.993397,0.993397,,,,,,,
,,not-splitted,767,0.031226,0.031226,,,,,,,
,,splitted,713,0.002633,0.901937,0,,,,,,
,,not-splitted,1054,1.10E-05,0.000015,,,,,,,
,,not-splitted,286,0.997995,0.997995,,,,,,,
,,not-splitted,871,0,0,,,,,,,
,,not-splitted,573,0.022832,0.022832,,,,,,,
,,not-splitted,807,0.423431,0.423431,,,,,,,
,,not-splitted,209,1.40E-05,0.000017,,,,,,,
,,not-splitted,1097,0,0,,,,,,,
,,not-splitted,256,0.069293,0.064267,,,,,,,
,,not-splitted,684,1.20E-05,0.000012,,,,,,,
,,not-splitted,369,0,0,,,,,,,
,,not-splitted,141,0.709659,0.709659,,,,,,,
,,not-splitted,388,0.399227,0.399227,,,,,,,
,,not-splitted,105,0.986309,0.987971,,,,,,,
,,not-splitted,971,1.00E-06,0.000001,,,,,,,
,,splitted,905,0.006785,0.227724,,,,,,,
,,not-splitted,1225,0,0,,,,,,,
,,splitted,79,0.995632,0.996773,0.526077,,,,,,
,,not-splitted,632,2.00E-06,0.000002,,,,,,,
,,not-splitted,614,0.460392,0.460392,,,,,,,
,,splitted,504,0,0.45963,,,,,,,
,,not-splitted,54,0,0,,,,,,,
,,not-splitted,69,3.00E-06,0.000003,,,,,,,
,,not-splitted,306,0.597615,0.597615,,,,,,,
,,splitted,1313,0.008284,0.437835,0.000014,,,,,,
,,not-splitted,909,0.004474,0.004474,,,,,,,
,,not-splitted,707,0,0,,,,,,,
,,not-splitted,978,0.997367,0.997367,,,,,,,
,,not-splitted,491,0.00906,0.00906,,,,,,,
,,not-splitted,654,0.929441,0.929441,,,,,,,
,,not-splitted,249,0,0,,,,,,,
,,not-splitted,349,0.254406,0.254406,,,,,,,
,,not-splitted,820,0.042464,0.042464,,,,,,,
,,not-splitted,354,0,0,,,,,,,
,,not-splitted,324,0.51975,0.5,,,,,,,
,,splitted,86,0.047662,0.86992,0.659461,0.133459,0.078473,0.071564,0.010715,,
,,not-splitted,765,0.95301,0.956994,,,,,,,
,,not-splitted,1060,0.909271,0.909271,,,,,,,
,,not-splitted,1355,0.009727,0.010602,,,,,,,
,,not-splitted,766,0,0,,,,,,,
,,not-splitted,887,0.999418,0.999432,,,,,,,
,,not-splitted,1318,0.007452,0.007452,,,,,,,
,,not-splitted,314,0,0,,,,,,,
,,not-splitted,546,0.075061,0.075061,,,,,,,
,,not-splitted,679,0,0,,,,,,,
,,not-splitted,37,0,0,,,,,,,
,,not-splitted,1286,0.05883,0.05883,,,,,,,
,,not-splitted,915,1.00E-05,0.00001,,,,,,,
,,not-splitted,1080,0,0,,,,,,,
,,not-splitted,33,0,0,,,,,,,
,,not-splitted,712,0,0,,,,,,,
,,not-splitted,706,7.00E-06,0.000007,,,,,,,
,,not-splitted,1242,0.034558,0.034558,,,,,,,
,,not-splitted,502,0.073799,0.073799,,,,,,,
,,not-splitted,763,0,0,,,,,,,
,,not-splitted,1121,0.026229,0.026229,,,,,,,
,,not-splitted,780,0,0,,,,,,,
,,splitted,524,1.00E-06,0.028586,0.000015,,,,,,
,,not-splitted,938,0,0,,,,,,,
,,not-splitted,734,0,0,,,,,,,
,,not-splitted,774,0,0,,,,,,,
,,not-splitted,1079,0,0,,,,,,,
,,not-splitted,791,0.095637,0.095637,,,,,,,
,,not-splitted,843,0.006086,0.005835,,,,,,,
,,splitted,604,0.885399,0.923211,0.714335,,,,,,
,,not-splitted,849,0,0,,,,,,,
,,not-splitted,1045,0.99905,0.99905,,,,,,,
,,not-splitted,1141,0.005282,0.005282,,,,,,,
,,not-splitted,108,0.693555,0.693555,,,,,,,
,,not-splitted,1291,1.00E-06,0.000001,,,,,,,
,,not-splitted,1281,0.996987,0.997289,,,,,,,
,,not-splitted,1384,0.326221,0.326221,,,,,,,
,,not-splitted,657,0.962439,0.962439,,,,,,,
,,not-splitted,862,0,0,,,,,,,
,,not-splitted,1091,0,0,,,,,,,
,,not-splitted,178,0,0,,,,,,,
,,not-splitted,622,0.296437,0.296437,,,,,,,
,,not-splitted,792,0,0,,,,,,,
,,not-splitted,454,0,0,,,,,,,
,,splitted,908,0,0.751945,0.009561,,,,,,
,,not-splitted,211,0,0,,,,,,,
,,not-splitted,154,0.991947,0.989852,,,,,,,
,,not-splitted,1316,0,0,,,,,,,
,,not-splitted,362,0.548191,0.5,,,,,,,
,,not-splitted,45,0,0,,,,,,,
,,not-splitted,231,0,0,,,,,,,
,,not-splitted,798,0.003223,0.003223,,,,,,,
,,not-splitted,386,0,0,,,,,,,
,,not-splitted,1041,4.00E-06,0.000004,,,,,,,
,,not-splitted,1020,0.008268,0.008268,,,,,,,
,,not-splitted,1213,0,0,,,,,,,
,,not-splitted,1180,0.998878,0.998878,,,,,,,
,,not-splitted,444,0,0,,,,,,,
,,not-splitted,364,0,0,,,,,,,
,,not-splitted,1010,0.270552,0.270552,,,,,,,
,,not-splitted,740,0.047201,0.060501,,,,,,,
,,not-splitted,59,0.260167,0.260167,,,,,,,
,,not-splitted,959,0,0,,,,,,,
,,splitted,530,0.796726,0.880528,0.204743,,,,,,
,,not-splitted,1354,0,0,,,,,,,
,,not-splitted,638,0.530877,0.530877,,,,,,,
,,not-splitted,648,0,0,,,,,,,
,,splitted,984,0.998968,0.999426,0.987039,,,,,,
,,not-splitted,1008,8.00E-06,0.000008,,,,,,,
,,splitted,962,0,0.000003,0,,,,,,
,,not-splitted,1030,0,0,,,,,,,
,,not-splitted,129,1.00E-06,0.000001,,,,,,,
,,not-splitted,667,0,0,,,,,,,
,,not-splitted,941,4.00E-06,0.000004,,,,,,,
,,not-splitted,771,0.204323,0.204323,,,,,,,
,,not-splitted,484,0.999725,0.999731,,,,,,,
,,not-splitted,311,0,0,,,,,,,
,,not-splitted,1043,1.60E-05,0.000018,,,,,,,
,,splitted,890,0,0,0,,,,,,
,,not-splitted,653,0,0,,,,,,,
,,not-splitted,486,0.047464,0.045776,,,,,,,
,,splitted,1266,1.00E-06,0.307169,0.012158,0,,,,,
,,not-splitted,291,0.543712,0.464248,,,,,,,
,,not-splitted,171,0,0,,,,,,,
,,not-splitted,781,0.006019,0.006019,,,,,,,
,,not-splitted,932,0.013813,0.013813,,,,,,,
,,not-splitted,642,0,0,,,,,,,
,,not-splitted,1312,0,0,,,,,,,
,,not-splitted,1273,0.92931,0.92931,,,,,,,
,,not-splitted,242,0.95999,0.95999,,,,,,,
,,not-splitted,542,0.004159,0.004311,,,,,,,
,,not-splitted,947,0.763695,0.763695,,,,,,,
,,not-splitted,1150,0,0,,,,,,,
,,splitted,899,0,0.000003,0,,,,,,
,,not-splitted,845,0,0,,,,,,,
,,not-splitted,724,0.018448,0.010745,,,,,,,
,,not-splitted,1192,0,0,,,,,,,
,,not-splitted,333,0.003142,0.003142,,,,,,,
,,not-splitted,1188,0,0,,,,,,,
,,not-splitted,1044,0.354927,0.354927,,,,,,,
,,not-splitted,628,1.80E-05,0.000018,,,,,,,
,,not-splitted,317,2.00E-06,0.000002,,,,,,,
,,not-splitted,952,6.00E-06,0.000006,,,,,,,
,,not-splitted,519,3.00E-06,0.000004,,,,,,,
,,not-splitted,880,6.00E-06,0.000006,,,,,,,
,,not-splitted,1052,1.00E-06,0.000001,,,,,,,
,,not-splitted,1056,1.40E-05,0.000014,,,,,,,
,,not-splitted,430,0.068262,0.073623,,,,,,,
,,splitted,634,0.233547,0.387137,0.229616,,,,,,
,,not-splitted,1218,0,0,,,,,,,
,,not-splitted,387,0,0,,,,,,,
,,not-splitted,536,0.709659,0.683417,,,,,,,
,,not-splitted,1050,0.092452,0.079201,,,,,,,
,,not-splitted,75,0.978307,0.978307,,,,,,,
,,not-splitted,329,0.975134,0.975134,,,,,,,
,,not-splitted,1,0,0,,,,,,,
,,not-splitted,1083,0,0,,,,,,,
,,not-splitted,400,0,0,,,,,,,
,,not-splitted,159,0.005174,0.005373,,,,,,,
,,not-splitted,494,2.00E-06,0.000003,,,,,,,
,,not-splitted,979,7.00E-06,0.000007,,,,,,,
,,not-splitted,237,1.00E-06,0.000002,,,,,,,
,,not-splitted,62,0.002909,0.002909,,,,,,,
,,splitted,819,0,0.003568,,,,,,,
,,not-splitted,51,0.20536,0.20536,,,,,,,
,,not-splitted,1230,0,0,,,,,,,
,,not-splitted,1288,0.289713,0.252478,,,,,,,
,,not-splitted,38,0.002548,0.002548,,,,,,,
,,not-splitted,739,0,0,,,,,,,
,,not-splitted,641,0,0,,,,,,,
,,not-splitted,760,0.84654,0.867876,,,,,,,
,,not-splitted,635,0.124846,0.124846,,,,,,,
,,not-splitted,450,0.027521,0.025341,,,,,,,
,,not-splitted,49,3.00E-06,0.000003,,,,,,,
,,not-splitted,664,0,0,,,,,,,
,,not-splitted,39,0,0,,,,,,,
,,not-splitted,448,0.115707,0.115707,,,,,,,
,,not-splitted,1038,0,0,,,,,,,
,,not-splitted,1294,0.014455,0.014455,,,,,,,
,,not-splitted,163,0.817004,0.833736,,,,,,,
,,not-splitted,284,0,0,,,,,,,
,,splitted,1174,0,0.006411,0,,,,,,
,,not-splitted,1306,0.061194,0.061194,,,,,,,
,,not-splitted,949,0.015214,0.015214,,,,,,,
,,splitted,358,0.345885,0.304115,0.148359,,,,,,
,,splitted,1278,0.978548,0.915097,0.006924,,,,,,
,,not-splitted,1152,0.998484,0.998484,,,,,,,
,,not-splitted,1254,0.347663,0.347663,,,,,,,
,,not-splitted,550,0.016433,0.016433,,,,,,,
,,not-splitted,1368,0.227198,0.227198,,,,,,,
,,splitted,967,0,0.818823,0,,,,,,
,,not-splitted,1146,0.999623,0.999623,,,,,,,
,,not-splitted,40,0.958682,0.958682,,,,,,,
,,not-splitted,1187,0,0,,,,,,,
,,not-splitted,1229,0,0,,,,,,,
,,not-splitted,986,0.022816,0.022816,,,,,,,
,,not-splitted,1033,0.964637,0.964637,,,,,,,
,,not-splitted,1284,0.005311,0.003284,,,,,,,
,,not-splitted,570,0,0,,,,,,,
,,not-splitted,1037,8.00E-06,0.000008,,,,,,,
,,not-splitted,1179,0,0,,,,,,,
,,splitted,850,0.002602,0.960961,0.240786,,,,,,
,,not-splitted,889,0.002923,0.002923,,,,,,,
,,splitted,587,0.052049,0.104617,0.007949,,,,,,
,,not-splitted,299,0,0,,,,,,,
,,not-splitted,225,0.05007,0.05007,,,,,,,
,,not-splitted,1105,0.999013,0.999163,,,,,,,
,,not-splitted,433,0.211256,0.19119,,,,,,,
,,not-splitted,234,4.00E-06,0.000004,,,,,,,
,,not-splitted,1200,0,0,,,,,,,
,,not-splitted,376,0,0,,,,,,,
,,splitted,963,0,0.080413,0.021331,0,,,,,
,,not-splitted,169,0,0,,,,,,,
,,not-splitted,140,0.010104,0.010104,,,,,,,
,,not-splitted,348,2.00E-06,0.000002,,,,,,,
,,not-splitted,773,0,0,,,,,,,
,,not-splitted,1375,0,0,,,,,,,
,,not-splitted,874,0.002527,0.002527,,,,,,,
,,not-splitted,1195,0.006959,0.006959,,,,,,,
,,not-splitted,1139,0.988608,0.987724,,,,,,,
,,not-splitted,1102,0,0,,,,,,,
,,not-splitted,1317,0,0,,,,,,,
,,not-splitted,1210,0.036639,0.037968,,,,,,,
,,splitted,440,0.234983,0.805232,0.216011,,,,,,
,,not-splitted,1109,0,0,,,,,,,
,,not-splitted,1181,1.00E-06,0.000001,,,,,,,
,,splitted,660,0.998088,0.997363,0.982895,,,,,,
,,not-splitted,403,0,0,,,,,,,
,,not-splitted,1116,0.055156,0.055156,,,,,,,
,,not-splitted,1205,3.00E-06,0.000003,,,,,,,
,,not-splitted,523,0.015581,0.015581,,,,,,,
,,not-splitted,296,1.00E-06,0.000001,,,,,,,
,,not-splitted,330,0.050789,0.050789,,,,,,,
,,splitted,1047,0,0.007898,,,,,,,
,,not-splitted,1136,0.78724,0.78724,,,,,,,
,,not-splitted,961,0.880691,0.880691,,,,,,,
,,not-splitted,143,0.016198,0.016198,,,,,,,
,,not-splitted,837,4.00E-06,0.000004,,,,,,,
,,splitted,222,0,0.247761,0,,,,,,
,,not-splitted,468,0,0,,,,,,,
,,not-splitted,1289,0.105892,0.105892,,,,,,,
,,not-splitted,1270,0,0,,,,,,,
,,not-splitted,729,0,0,,,,,,,
,,splitted,1353,0.003052,0.552303,0.008482,,,,,,
,,not-splitted,325,0,0,,,,,,,
,,not-splitted,997,0,0,,,,,,,
,,not-splitted,25,0.994716,0.994285,,,,,,,
,,not-splitted,983,0,0,,,,,,,
,,not-splitted,565,0.990064,0.990064,,,,,,,
,,not-splitted,860,0.997453,0.997453,,,,,,,
,,not-splitted,2,1.00E-06,0.000001,,,,,,,
,,not-splitted,1327,0,0,,,,,,,
,,not-splitted,418,0.004864,0.004864,,,,,,,
,,not-splitted,168,0.126373,0.12164,,,,,,,
,,not-splitted,1063,1.60E-05,0.000016,,,,,,,
,,not-splitted,43,0.970226,0.975205,,,,,,,
,,not-splitted,1175,0.99346,0.99346,,,,,,,
,,not-splitted,285,0.91631,0.91631,,,,,,,
,,not-splitted,389,0.92057,0.92057,,,,,,,
,,not-splitted,561,0,0,,,,,,,
,,not-splitted,20,0,0,,,,,,,
,,not-splitted,517,0.006541,0.006541,,,,,,,
,,splitted,1040,0,0.587752,0,,,,,,
,,not-splitted,749,1.00E-06,0.000001,,,,,,,
,,not-splitted,1339,0.163219,0.163219,,,,,,,
,,not-splitted,1335,0,0,,,,,,,
,,not-splitted,102,0.006652,0.006067,,,,,,,
,,not-splitted,265,0.989847,0.989847,,,,,,,
,,not-splitted,1119,0.004013,0.004013,,,,,,,
,,not-splitted,900,0.006818,0.006818,,,,,,,
,,not-splitted,244,0.867101,0.867101,,,,,,,
,,splitted,665,0.985616,0.956305,0.948432,0.89152,,,,,
,,not-splitted,1345,5.00E-06,0.000005,,,,,,,
,,not-splitted,1169,0.122463,0.122463,,,,,,,
,,not-splitted,58,0.353826,0.353826,,,,,,,
,,not-splitted,944,0.996299,0.996816,,,,,,,
,,not-splitted,320,0,0,,,,,,,
,,not-splitted,183,2.00E-06,0.000003,,,,,,,
,,splitted,445,0,0.204746,0,,,,,,
,,not-splitted,452,0.981543,0.981543,,,,,,,
,,not-splitted,873,0,0,,,,,,,
,,not-splitted,833,0.00364,0.00364,,,,,,,
,,not-splitted,125,0.011344,0.011344,,,,,,,
,,not-splitted,1212,0.014704,0.014704,,,,,,,
,,splitted,1065,0.006978,0.40727,0.18715,,,,,,
,,not-splitted,1159,0,0,,,,,,,
,,not-splitted,1232,0.098304,0.104617,,,,,,,
,,not-splitted,742,0.005664,0.005176,,,,,,,
,,not-splitted,670,0,0,,,,,,,
,,not-splitted,1068,1.00E-06,0.000001,,,,,,,
,,not-splitted,368,0.019491,0.019491,,,,,,,
,,not-splitted,946,3.00E-06,0.000002,,,,,,,
,,not-splitted,1029,0,0,,,,,,,
,,not-splitted,393,8.00E-06,0.000008,,,,,,,
,,splitted,606,0,0.000007,0,,,,,,
,,not-splitted,596,0.992605,0.992605,,,,,,,
,,not-splitted,516,0.7088,0.7088,,,,,,,
,,not-splitted,1248,0.999824,0.999824,,,,,,,
,,not-splitted,357,0.420129,0.411857,,,,,,,
,,not-splitted,1134,0,0,,,,,,,
,,not-splitted,808,0.00384,0.00384,,,,,,,
,,not-splitted,859,1.00E-06,0.000001,,,,,,,
,,not-splitted,429,0,0,,,,,,,
,,not-splitted,544,0,0,,,,,,,
,,not-splitted,122,0,0,,,,,,,
,,not-splitted,758,1.40E-05,0.000014,,,,,,,
,,not-splitted,1129,0.997938,0.997387,,,,,,,
,,not-splitted,425,0.055012,0.055012,,,,,,,
,,not-splitted,619,0.80958,0.815074,,,,,,,
,,not-splitted,1347,0,0,,,,,,,
,,splitted,361,0,0.013043,0,,,,,,
,,splitted,1315,1.00E-06,0.365893,0,,,,,,
,,not-splitted,24,1.00E-06,0.000001,,,,,,,
,,not-splitted,541,2.00E-06,0.000002,,,,,,,
,,not-splitted,1093,0,0,,,,,,,
,,not-splitted,620,0,0,,,,,,,
,,not-splitted,496,0.38547,0.38547,,,,,,,
,,not-splitted,594,0.008379,0.008379,,,,,,,
,,splitted,615,0,0.029175,0,,,,,,
,,not-splitted,557,0.004789,0.004789,,,,,,,
,,not-splitted,283,0,0,,,,,,,
,,not-splitted,288,0.022205,0.022205,,,,,,,
,,not-splitted,272,0,0,,,,,,,
,,not-splitted,554,0,0,,,,,,,
,,splitted,257,0,0.268626,0,,,,,,
,,not-splitted,969,1.10E-05,0.000011,,,,,,,
,,not-splitted,1088,0,0,,,,,,,
,,splitted,64,0,0.08967,0,,,,,,
,,not-splitted,100,0.012361,0.012853,,,,,,,
,,not-splitted,816,0,0,,,,,,,
,,not-splitted,165,0,0,,,,,,,
,,not-splitted,56,0,0,,,,,,,
,,not-splitted,778,0.01077,0.01077,,,,,,,
,,not-splitted,762,0.93189,0.93189,,,,,,,
,,not-splitted,1264,0,0,,,,,,,
,,not-splitted,1094,0.136877,0.118886,,,,,,,
,,not-splitted,408,3.00E-06,0.000003,,,,,,,
,,not-splitted,513,0,0,,,,,,,
,,not-splitted,1076,0.003412,0.003412,,,,,,,
,,not-splitted,1016,0.292641,0.265553,,,,,,,
,,not-splitted,1349,0.004382,0.004382,,,,,,,
,,not-splitted,1046,0.026628,0.026628,,,,,,,
,,splitted,292,0,0.335405,0.000002,0,,,,,
,,not-splitted,1132,0.005346,0.005851,,,,,,,
,,not-splitted,973,0.01671,0.01671,,,,,,,
,,not-splitted,974,0.111062,0.111062,,,,,,,
,,splitted,981,0.00389,0.769425,0.004143,,,,,,
,,not-splitted,1114,0,0,,,,,,,
,,not-splitted,761,0,0,,,,,,,
,,splitted,1185,0.999652,0.998828,0.008711,,,,,,
,,not-splitted,691,0.003998,0.003676,,,,,,,
,,not-splitted,838,0,0,,,,,,,
,,not-splitted,204,0.013607,0.013607,,,,,,,
,,not-splitted,1397,0,0,,,,,,,
,,not-splitted,1107,0,0,,,,,,,
,,not-splitted,861,0.741783,0.741783,,,,,,,
,,not-splitted,790,0.00598,0.00598,,,,,,,
,,not-splitted,409,0.159169,0.159169,,,,,,,
,,not-splitted,145,6.00E-06,0.000006,,,,,,,
,,splitted,745,0.146736,0.597763,0,,,,,,
,,not-splitted,435,0.182504,0.182504,,,,,,,
,,splitted,1299,0.998528,0.9987,0.998301,,,,,,
,,not-splitted,318,0.007758,0.007758,,,,,,,
,,not-splitted,338,0,0,,,,,,,
,,not-splitted,1120,0.092727,0.092727,,,,,,,
,,not-splitted,1099,0.100652,0.097465,,,,,,,
,,splitted,133,0,0.477197,0,,,,,,
,,not-splitted,1222,0,0,,,,,,,
,,not-splitted,936,5.00E-06,0.000005,,,,,,,
,,splitted,1014,0.88485,0.948385,0.927784,,,,,,
,,not-splitted,918,3.00E-06,0.000003,,,,,,,
,,not-splitted,197,0.013126,0.011652,,,,,,,
,,not-splitted,1364,0.457909,0.457909,,,,,,,
,,not-splitted,341,0,0,,,,,,,
,,not-splitted,332,0.994448,0.994448,,,,,,,
,,not-splitted,252,0,0,,,,,,,
,,not-splitted,785,0,0,,,,,,,
,,not-splitted,1234,0,0,,,,,,,
,,not-splitted,423,0.006318,0.006091,,,,,,,
,,not-splitted,471,0,0,,,,,,,
,,not-splitted,99,3.00E-06,0.000003,,,,,,,
,,not-splitted,302,1.00E-06,0.000001,,,,,,,
,,not-splitted,350,0,0,,,,,,,
,,not-splitted,976,0.04831,0.04831,,,,,,,
,,not-splitted,1118,0,0,,,,,,,
,,not-splitted,995,0,0,,,,,,,
,,not-splitted,515,0,0,,,,,,,
,,not-splitted,1101,0,0,,,,,,,
,,not-splitted,1184,0.818114,0.818114,,,,,,,
,,not-splitted,723,0.968958,0.968958,,,,,,,
,,not-splitted,274,0,0,,,,,,,
,,not-splitted,629,0.170632,0.170632,,,,,,,
,,splitted,1226,0,0.401101,0,,,,,,
,,not-splitted,1193,0,0,,,,,,,
,,not-splitted,937,1.10E-05,0.000011,,,,,,,
,,splitted,578,0,0.997117,0.199256,0,,,,,
,,not-splitted,539,0.809787,0.809787,,,,,,,
,,splitted,598,0.028637,0.997845,0.354354,0.096987,0.037936,0.007889,,,
,,not-splitted,419,0,0,,,,,,,
,,not-splitted,921,0.984787,0.984787,,,,,,,
,,not-splitted,1095,0.044565,0.044565,,,,,,,
,,not-splitted,511,0.006977,0.007729,,,,,,,
,,not-splitted,556,0.611008,0.620242,,,,,,,
,,not-splitted,676,0,0,,,,,,,
,,not-splitted,215,0,0,,,,,,,
,,not-splitted,888,0,0,,,,,,,
,,not-splitted,456,0,0,,,,,,,
,,splitted,459,0,0.141722,0,,,,,,
,,not-splitted,1049,0.006273,0.006273,,,,,,,
,,not-splitted,881,0.200201,0.200201,,,,,,,
,,not-splitted,954,0.998216,0.998216,,,,,,,
,,not-splitted,232,0.712184,0.712184,,,,,,,
,,not-splitted,1183,0.035918,0.035918,,,,,,,
,,splitted,759,0.009014,0.981188,0.009839,,,,,,
,,not-splitted,1385,0.003139,0.003139,,,,,,,
,,not-splitted,253,0,0,,,,,,,
,,not-splitted,692,0,0,,,,,,,
,,not-splitted,1170,0.998566,0.998566,,,,,,,
,,splitted,214,1.20E-05,0.004441,0.000008,,,,,,
,,not-splitted,526,0,0,,,,,,,
,,not-splitted,473,0,0,,,,,,,
,,not-splitted,46,2.00E-06,0.000002,,,,,,,
,,not-splitted,84,0,0,,,,,,,
,,not-splitted,273,0.999068,0.999084,,,,,,,
,,not-splitted,507,0,0,,,,,,,
,,not-splitted,728,0,0,,,,,,,
,,not-splitted,1111,0,0,,,,,,,
,,not-splitted,395,1.10E-05,0.000011,,,,,,,
,,not-splitted,1001,0.112674,0.112674,,,,,,,
,,not-splitted,777,0.123603,0.123603,,,,,,,
,,not-splitted,184,0.982156,0.982156,,,,,,,
,,not-splitted,1067,0.003407,0.003407,,,,,,,
,,not-splitted,1012,0.422657,0.422657,,,,,,,
,,not-splitted,560,0.255501,0.255501,,,,,,,
,,not-splitted,282,0.006591,0.006591,,,,,,,
,,not-splitted,1386,0.016719,0.016719,,,,,,,
,,not-splitted,647,0,0,,,,,,,
,,not-splitted,965,0.997463,0.997463,,,,,,,
,,not-splitted,878,0,0,,,,,,,
,,not-splitted,134,0,0,,,,,,,
,,not-splitted,216,0.008599,0.008599,,,,,,,
,,not-splitted,681,0.003053,0.003053,,,,,,,
,,not-splitted,813,0.008829,0.008829,,,,,,,
,,not-splitted,1090,0,0,,,,,,,
,,not-splitted,532,1.10E-05,0.000011,,,,,,,
,,splitted,545,2.00E-06,0.790951,0.000001,,,,,,
,,not-splitted,830,1.00E-06,0.000001,,,,,,,
,,not-splitted,650,0.146946,0.146946,,,,,,,
,,not-splitted,1325,0,0,,,,,,,
,,not-splitted,121,0,0,,,,,,,
,,not-splitted,267,1.00E-06,0.000001,,,,,,,
,,not-splitted,80,0,0,,,,,,,
,,not-splitted,1388,0.988276,0.988276,,,,,,,
,,not-splitted,1277,0,0,,,,,,,
,,not-splitted,394,0,0,,,,,,,
,,splitted,264,0.853046,0.98402,0.970203,,,,,,
,,not-splitted,1259,7.00E-06,0.000007,,,,,,,
,,not-splitted,1053,0,0,,,,,,,
,,splitted,344,0.095778,0.91401,0.256382,,,,,,
,,not-splitted,508,0.00345,0.00345,,,,,,,
,,not-splitted,1239,2.00E-06,0.000002,,,,,,,
,,not-splitted,826,0.493442,0.493442,,,,,,,
,,not-splitted,156,0,0,,,,,,,
,,not-splitted,897,0,0,,,,,,,
,,splitted,1256,0,0.051613,0.014832,0,,,,,
,,splitted,398,0.618665,0.996874,0.918258,0,,,,,
,,not-splitted,855,0,0,,,,,,,
,,not-splitted,167,0.59279,0.59279,,,,,,,
,,not-splitted,901,0,0,,,,,,,
,,splitted,817,0,0,,,,,,,
,,not-splitted,879,0.00679,0.00679,,,,,,,
,,splitted,87,0,0.000001,,,,,,,
,,not-splitted,644,0.159358,0.118854,,,,,,,
,,not-splitted,575,0.083586,0.083586,,,,,,,
,,not-splitted,585,0,0,,,,,,,
,,not-splitted,689,0,0,,,,,,,
,,not-splitted,720,0.292302,0.292302,,,,,,,
,,not-splitted,1147,0.930132,0.930132,,,,,,,
,,not-splitted,1311,0,0,,,,,,,
,,not-splitted,336,1.00E-06,0.000001,,,,,,,
,,not-splitted,82,0.004473,0.004473,,,,,,,
,,not-splitted,10,0.4899,0.4899,,,,,,,
,,not-splitted,381,0,0,,,,,,,
,,not-splitted,98,0,0,,,,,,,
,,splitted,111,0,0.000015,0,,,,,,
,,not-splitted,116,0.947522,0.947522,,,,,,,
,,not-splitted,106,5.00E-06,0.000005,,,,,,,
,,not-splitted,448,0.002911,0.002911,,,,,,,
,,not-splitted,340,0.014698,0.014698,,,,,,,
,,not-splitted,315,0,0,,,,,,,
,,not-splitted,129,0,0,,,,,,,
,,not-splitted,441,0.030027,0.022997,,,,,,,
,,not-splitted,327,0,0,,,,,,,
,,splitted,158,0.997654,0.998196,0.971389,0.969439,,,,,
,,splitted,502,0.278158,0.879319,0.609414,,,,,,
,,not-splitted,308,0.997026,0.997026,,,,,,,
,,splitted,322,0.005635,0.967111,0.948543,0.020036,0.000012,,,,
,,not-splitted,464,1.00E-05,0.00001,,,,,,,
,,splitted,205,0.223872,0.572581,0.543903,,,,,,
,,not-splitted,255,0.005022,0.004208,,,,,,,
,,not-splitted,323,0.968192,0.951135,,,,,,,
,,not-splitted,43,0.73581,0.73581,,,,,,,
,,splitted,102,0.173913,0.736487,0.701667,,,,,,
,,not-splitted,411,0,0,,,,,,,
,,not-splitted,15,1.00E-06,0.000001,,,,,,,
,,not-splitted,71,0.982065,0.982065,,,,,,,
,,not-splitted,179,0,0,,,,,,,
,,not-splitted,210,0.067498,0.065292,,,,,,,
,,not-splitted,341,0.012076,0.009968,,,,,,,
,,not-splitted,431,0.978528,0.978528,,,,,,,
,,not-splitted,379,0.997707,0.997707,,,,,,,
,,not-splitted,454,0.015473,0.013703,,,,,,,
,,not-splitted,34,9.00E-06,0.000007,,,,,,,
,,not-splitted,37,0,0,,,,,,,
,,not-splitted,31,0.006089,0.008221,,,,,,,
,,not-splitted,426,0,0,,,,,,,
,,not-splitted,371,0.959978,0.959978,,,,,,,
,,not-splitted,501,0.997511,0.997511,,,,,,,
,,not-splitted,293,0.411803,0.420088,,,,,,,
,,not-splitted,149,0.998789,0.998682,,,,,,,
,,not-splitted,185,0.68592,0.677324,,,,,,,
,,not-splitted,171,0.813243,0.813243,,,,,,,
,,not-splitted,266,0,0,,,,,,,
,,not-splitted,239,0,0,,,,,,,
,,not-splitted,125,3.00E-06,0.000003,,,,,,,
,,not-splitted,230,3.00E-06,0.000003,,,,,,,
,,not-splitted,77,1.50E-05,0.000015,,,,,,,
,,not-splitted,478,0.020036,0.020036,,,,,,,
,,not-splitted,470,0.84654,0.84654,,,,,,,
,,not-splitted,65,0.015729,0.015729,,,,,,,
,,not-splitted,188,0.040885,0.038236,,,,,,,
,,not-splitted,249,0.244934,0.244934,,,,,,,
,,not-splitted,453,0,0,,,,,,,
,,not-splitted,456,8.00E-06,0.000008,,,,,,,
,,not-splitted,80,1.00E-06,0.000001,,,,,,,
,,not-splitted,318,0,0,,,,,,,
,,not-splitted,435,0.015658,0.018083,,,,,,,
,,not-splitted,131,0.895523,0.895523,,,,,,,
,,not-splitted,151,0,0,,,,,,,
,,splitted,437,0.987448,0.998692,0.458595,,,,,,
,,not-splitted,299,0.959624,0.959624,,,,,,,
,,not-splitted,259,7.00E-06,0.000007,,,,,,,
,,not-splitted,191,1.70E-05,0.000017,,,,,,,
,,splitted,444,0.580111,0.885354,0.352903,,,,,,
,,not-splitted,187,0.939051,0.939051,,,,,,,
,,not-splitted,292,0,0,,,,,,,
,,not-splitted,206,1.00E-05,0.000005,,,,,,,
,,not-splitted,391,0.964645,0.964645,,,,,,,
,,not-splitted,486,0.005347,0.005347,,,,,,,
,,not-splitted,354,0.98726,0.98726,,,,,,,
,,not-splitted,480,0,0,,,,,,,
,,not-splitted,276,0.858882,0.839758,,,,,,,
,,not-splitted,238,0.537858,0.537858,,,,,,,
,,not-splitted,477,0.022207,0.022207,,,,,,,
,,not-splitted,68,0.008147,0.008147,,,,,,,
,,not-splitted,336,0,0,,,,,,,
,,not-splitted,7,0,0,,,,,,,
,,not-splitted,465,0,0,,,,,,,
,,not-splitted,197,0.005833,0.005833,,,,,,,
,,not-splitted,243,0.006869,0.006869,,,,,,,
,,not-splitted,295,0.998681,0.998681,,,,,,,
,,not-splitted,21,0.040658,0.040658,,,,,,,
,,not-splitted,199,0.042187,0.042187,,,,,,,
,,not-splitted,289,0,0,,,,,,,
,,not-splitted,319,0.056584,0.056584,,,,,,,
,,splitted,154,0.998532,0.998599,0.997582,,,,,,
,,not-splitted,133,0.731942,0.738377,,,,,,,
,,not-splitted,506,0,0,,,,,,,
,,not-splitted,112,3.00E-06,0.000003,,,,,,,
,,not-splitted,220,0.977136,0.977136,,,,,,,
,,not-splitted,421,0.794378,0.817727,,,,,,,
,,splitted,420,0,0.040885,0.026109,,,,,,
,,not-splitted,439,0,0,,,,,,,
,,not-splitted,127,0,0,,,,,,,
,,not-splitted,347,0.167096,0.172557,,,,,,,
,,not-splitted,459,0.995624,0.994647,,,,,,,
,,not-splitted,130,0,0,,,,,,,
,,not-splitted,88,0,0,,,,,,,
,,not-splitted,32,0.012379,0.012379,,,,,,,
,,not-splitted,156,2.00E-06,0.000002,,,,,,,
,,not-splitted,252,0,0,,,,,,,
,,not-splitted,200,0.191165,0.191165,,,,,,,
,,not-splitted,326,0,0,,,,,,,
,,not-splitted,232,0,0,,,,,,,
,,not-splitted,481,0,0,,,,,,,
,,not-splitted,380,0.010219,0.010219,,,,,,,
,,not-splitted,375,0.005795,0.005795,,,,,,,
,,not-splitted,349,0.490379,0.490379,,,,,,,
,,splitted,408,0.981824,0.977901,0.977013,,,,,,
,,not-splitted,337,0.002532,0.002532,,,,,,,
,,not-splitted,216,0.714436,0.714436,,,,,,,
,,not-splitted,314,0.580937,0.580937,,,,,,,
,,not-splitted,248,0.047955,0.047955,,,,,,,
,,not-splitted,301,0.003249,0.003532,,,,,,,
,,splitted,507,0.828029,0.980505,0.082458,,,,,,
,,not-splitted,17,0.060334,0.060334,,,,,,,
,,not-splitted,202,0.924343,0.939242,,,,,,,
,,not-splitted,460,0.21766,0.203902,,,,,,,
,,not-splitted,358,2.00E-06,0.000002,,,,,,,
,,splitted,320,0.089278,0.869019,0.153841,,,,,,
,,not-splitted,297,0.013717,0.013717,,,,,,,
,,not-splitted,240,0.28541,0.28541,,,,,,,
,,not-splitted,479,0,0,,,,,,,
,,not-splitted,361,0.028199,0.028199,,,,,,,
,,not-splitted,374,0,0,,,,,,,
,,not-splitted,418,0,0,,,,,,,
,,not-splitted,370,0.057423,0.057423,,,,,,,
,,not-splitted,207,0.927957,0.927957,,,,,,,
,,not-splitted,363,1.00E-06,0.000001,,,,,,,
,,not-splitted,388,0.969439,0.969439,,,,,,,
,,splitted,175,0.93656,0.914714,0.537117,,,,,,
,,not-splitted,89,0.179004,0.167837,,,,,,,
,,not-splitted,122,0.032693,0.032693,,,,,,,
,,not-splitted,406,0,0,,,,,,,
,,not-splitted,274,0,0,,,,,,,
,,not-splitted,390,0,0,,,,,,,
,,splitted,35,0.999876,0.999747,0.998904,0.956305,,,,,
,,splitted,428,0.984073,0.999918,0.725394,,,,,,
,,not-splitted,436,0.986622,0.986622,,,,,,,
,,not-splitted,242,0.198827,0.193563,,,,,,,
,,not-splitted,128,0,0,,,,,,,
,,not-splitted,60,1.00E-06,0.000001,,,,,,,
,,not-splitted,194,0,0,,,,,,,
,,not-splitted,28,0.098393,0.101948,,,,,,,
,,not-splitted,66,0.016319,0.016319,,,,,,,
,,not-splitted,201,0,0,,,,,,,
,,not-splitted,146,0.35036,0.35036,,,,,,,
,,not-splitted,429,0,0,,,,,,,
,,not-splitted,217,0,0,,,,,,,
,,not-splitted,449,0,0,,,,,,,
,,not-splitted,86,0.557586,0.557586,,,,,,,
,,not-splitted,504,0.471466,0.471466,,,,,,,
,,not-splitted,279,0,0,,,,,,,
,,splitted,20,0,0,0,,,,,,
,,not-splitted,286,0.222551,0.222551,,,,,,,
,,not-splitted,227,0,0,,,,,,,
,,not-splitted,145,0.533782,0.517693,,,,,,,
,,not-splitted,490,0.573441,0.573441,,,,,,,
,,not-splitted,79,1.00E-06,0.000001,,,,,,,
,,not-splitted,143,0.338993,0.338993,,,,,,,
,,not-splitted,166,0.998224,0.998303,,,,,,,
,,not-splitted,74,0.109247,0.109247,,,,,,,
,,not-splitted,325,0.998122,0.998319,,,,,,,
,,not-splitted,405,0.947407,0.947407,,,,,,,
,,not-splitted,113,0.998596,0.998596,,,,,,,
,,not-splitted,51,0.977663,0.977663,,,,,,,
,,not-splitted,115,0.975681,0.975681,,,,,,,
,,not-splitted,332,0.593981,0.593981,,,,,,,
,,not-splitted,324,0.047715,0.047715,,,,,,,
,,not-splitted,18,0.38767,0.38767,,,,,,,
,,not-splitted,24,0.00664,0.00664,,,,,,,
,,not-splitted,100,0,0,,,,,,,
,,not-splitted,189,0.994131,0.994131,,,,,,,
,,not-splitted,204,0.031403,0.031403,,,,,,,
,,not-splitted,25,0,0,,,,,,,
,,not-splitted,458,0.134864,0.134864,,,,,,,
,,not-splitted,233,0.037678,0.037678,,,,,,,
,,splitted,310,0.380523,0.728378,0.17345,,,,,,
,,not-splitted,135,0.005522,0.005522,,,,,,,
,,not-splitted,44,0.339052,0.339052,,,,,,,
,,not-splitted,81,0,0,,,,,,,
,,not-splitted,61,1.20E-05,0.000012,,,,,,,
,,not-splitted,382,0,0,,,,,,,
,,not-splitted,218,0.011445,0.011445,,,,,,,
,,not-splitted,268,0.043715,0.042278,,,,,,,
,,not-splitted,36,0.007622,0.008582,,,,,,,
,,not-splitted,163,0,0,,,,,,,
,,not-splitted,445,9.00E-06,0.000009,,,,,,,
,,not-splitted,168,6.00E-06,0.000006,,,,,,,
,,not-splitted,300,0.119675,0.138363,,,,,,,
,,not-splitted,273,0.037185,0.037185,,,,,,,
,,not-splitted,105,0.084526,0.084526,,,,,,,
,,not-splitted,483,0,0,,,,,,,
,,not-splitted,123,0.995153,0.995153,,,,,,,
,,splitted,368,0,0.002621,0,,,,,,
,,not-splitted,316,0,0,,,,,,,
,,splitted,317,0.853677,0.898424,0.781431,,,,,,
,,not-splitted,181,0,0,,,,,,,
,,not-splitted,139,0,0,,,,,,,
,,not-splitted,3,0,0,,,,,,,
,,not-splitted,372,0,0,,,,,,,
,,not-splitted,415,0,0,,,,,,,
,,not-splitted,42,0.551893,0.551893,,,,,,,
,,not-splitted,137,0,0,,,,,,,
,,not-splitted,38,0,0,,,,,,,
,,not-splitted,178,0.004123,0.004123,,,,,,,
,,not-splitted,397,0.01375,0.01375,,,,,,,
,,not-splitted,285,0.038236,0.039543,,,,,,,
,,not-splitted,432,0.798864,0.798864,,,,,,,
,,not-splitted,335,0.004081,0.004081,,,,,,,
,,splitted,93,0.016459,0.995331,0.994426,0.988071,0.782889,,,,
,,not-splitted,484,0,0,,,,,,,
,,not-splitted,342,1.10E-05,0.000011,,,,,,,
,,not-splitted,269,0.088754,0.091619,,,,,,,
,,not-splitted,147,0,0,,,,,,,
,,not-splitted,228,0.009794,0.009794,,,,,,,
,,not-splitted,213,0.996887,0.996887,,,,,,,
,,splitted,49,0,0.193873,0,,,,,,
,,not-splitted,399,0.076512,0.076512,,,,,,,
,,splitted,120,0,0.596133,0,,,,,,
,,splitted,256,0.410096,0.612077,0.000002,,,,,,
,,not-splitted,121,1.00E-05,0.00001,,,,,,,
,,not-splitted,367,0.147564,0.16132,,,,,,,
,,not-splitted,212,0.98126,0.98126,,,,,,,
,,splitted,50,0.975818,0.981338,0.927035,,,,,,
,,not-splitted,298,0.404035,0.404035,,,,,,,
,,not-splitted,245,0.024285,0.024285,,,,,,,
,,not-splitted,224,0,0,,,,,,,
,,not-splitted,384,0.004219,0.004219,,,,,,,
,,not-splitted,157,0,0,,,,,,,
,,not-splitted,472,0.137496,0.137496,,,,,,,
,,not-splitted,76,0.612668,0.612668,,,,,,,
,,not-splitted,13,0,0,,,,,,,
,,not-splitted,287,0.004097,0.005853,,,,,,,
,,not-splitted,59,0.011118,0.012113,,,,,,,
,,not-splitted,222,0.036756,0.036756,,,,,,,
,,not-splitted,473,0,0,,,,,,,
,,not-splitted,404,0.902928,0.902928,,,,,,,
,,not-splitted,136,0.995239,0.99539,,,,,,,
,,not-splitted,235,0.006639,0.006639,,,,,,,
,,not-splitted,356,0.194521,0.194521,,,,,,,
,,not-splitted,114,0.115235,0.115235,,,,,,,
,,not-splitted,144,0.46094,0.46094,,,,,,,
,,not-splitted,9,0.734025,0.734025,,,,,,,
,,not-splitted,345,0.439082,0.458435,,,,,,,
,,splitted,309,0.189365,0.973011,0.866018,0.596133,0.505599,,,,
,,not-splitted,440,0.873333,0.873333,,,,,,,
,,not-splitted,83,0.952291,0.952291,,,,,,,
,,not-splitted,90,0.005992,0.005992,,,,,,,
,,splitted,346,1.40E-05,0.145848,0.000007,,,,,,
,,not-splitted,53,0,0,,,,,,,
,,not-splitted,192,0.601443,0.601443,,,,,,,
,,not-splitted,303,0.77922,0.77922,,,,,,,
,,splitted,442,8.00E-06,0.303877,0.250428,,,,,,
,,not-splitted,84,1.00E-06,0.000001,,,,,,,
,,not-splitted,72,0,0,,,,,,,
,,not-splitted,87,0.991487,0.992358,,,,,,,
,,not-splitted,321,0.145482,0.145482,,,,,,,
,,not-splitted,231,0.081468,0.081468,,,,,,,
,,not-splitted,110,0.178358,0.178358,,,,,,,
,,not-splitted,394,0.066623,0.066623,,,,,,,
,,not-splitted,512,0.077745,0.075235,,,,,,,
,,not-splitted,119,0,0,,,,,,,
,,not-splitted,211,0,0,,,,,,,
,,not-splitted,487,1.00E-06,0.000001,,,,,,,
,,not-splitted,253,0.13813,0.118603,,,,,,,
,,not-splitted,155,0,0,,,,,,,
,,not-splitted,30,0.990988,0.990988,,,,,,,
,,not-splitted,267,0.086693,0.086693,,,,,,,
,,splitted,313,0,0.216829,0,,,,,,
,,not-splitted,359,0.008012,0.008012,,,,,,,
,,not-splitted,104,0.00293,0.00293,,,,,,,
,,not-splitted,505,0.03043,0.03043,,,,,,,
,,not-splitted,183,0.005511,0.005511,,,,,,,
,,splitted,457,0.151731,0.076017,0.03697,,,,,,
,,not-splitted,369,0.046901,0.046901,,,,,,,
,,not-splitted,236,0,0,,,,,,,
,,not-splitted,401,0,0,,,,,,,
,,not-splitted,350,4.00E-06,0.000004,,,,,,,
,,not-splitted,170,0.728378,0.728378,,,,,,,
